Place,Name,Sex,BirthDate,Age,Equipment,Division,BodyweightKg,WeightClassKg,Squat1Kg,Squat2Kg,Squat3Kg,Best3SquatKg,Bench1Kg,Bench2Kg,Bench3Kg,Bench4Kg,Best3BenchKg,Deadlift1Kg,Deadlift2Kg,Deadlift3Kg,Best3DeadliftKg,TotalKg,Event
1,Helen Collier,F,2003-01-05,20,Wraps,J20-23,64.1,67.5,105,120,130,130,50,55,57.5,,57.5,100,107.5,,107.5,295,SBD
1,Cindy Wilson,F,1999-09-03,23,Wraps,J20-23,88.8,90,105,115,-125,115,45,52.5,-57.5,,52.5,110,-125,-125,110,277.5,SBD
1,Pam Li,F,1970-03-05,,Wraps,M50-59,54.8,56,95,102.5,107.5,107.5,50,52.5,55,,55,132.5,140,142.5,142.5,305,SBD
1,Monique Harrington,F,1998-06-01,24,Wraps,Open,60,60,102.5,112.5,-117.5,112.5,45,52.5,-57.5,,52.5,130,137.5,-145,137.5,302.5,SBD
1,Jessica Madders,F,1990-09-26,32,Wraps,Open,74.2,75,135,145,155,155,65,70,75,,75,150,160,165,165,395,SBD
1,Tori Pritchard,F,1998-09-07,24,Wraps,Open,88.8,90,130,140,-150,140,50,55,57.5,,57.5,125,140,147.5,147.5,345,SBD
1,Kristina Voultepsis,F,1995-11-16,27,Wraps,Open,102.5,90+,155,180,,180,60,65,70,,70,135,150,,150,400,SBD
1,Nicole Raposo,F,1999-04-01,23,Raw,J20-23,80.1,82.5,,,,,60,65,-70,,65,,,,,65,B
1,Anna Parygina,F,1970-11-01,52,Raw,M50-59,55.1,56,,,,,62.5,65,-67.5,,65,,,,,65,B
1,Nicole Raposo,F,1999-04-01,23,Raw,J20-23,80.1,82.5,,,,,,,,,,130,145,155,155,155,D
1,Jack Batchelor,M,1999-03-13,23,Wraps,J20-23,96.7,100,185,200,210,210,110,117.5,125,,125,205,215,225,225,560,SBD
1,Joshua Nicholson,M,2002-10-26,20,Wraps,J20-23,122.6,125,245,260,270,270,145,155,-165,,155,245,260,275,275,700,SBD
1,Mark Gilbert,M,1982-09-13,40,Wraps,M40-49,80.3,82.5,-200,200,220,220,120,,,,120,210,-230,230,230,570,SBD
1,Jack Morgan #4,M,1998-09-22,24,Wraps,Open,81.1,82.5,182.5,195,212.5,212.5,112.5,-122.5,122.5,,122.5,225,250,-260,250,585,SBD
2,Richard Dienjes,M,1984-04-12,38,Wraps,Open,79.3,82.5,175,185,-195,185,100,110,115,,115,215,230,240,240,540,SBD
1,Aadil Saheed,M,1998-01-14,25,Wraps,Open,90,90,170,180,-190,180,105,112.5,120,,120,190,195,-200,195,495,SBD
1,Aiden Maloney,M,1995-06-09,27,Wraps,Open,98.3,100,280,290,-300,290,140,150,-157.5,,150,250,260,-270,260,700,SBD
1,Brennen Hall,M,1993-01-13,30,Wraps,Open,116.9,125,212.5,227.5,240,240,142.5,155,160,,160,275,287.5,-300,287.5,687.5,SBD
1,Dylan Milat,M,2005-07-05,17,Wraps,S17-19,81.6,82.5,152.5,160,170,170,115,120,-122.5,,120,175,190,-200,190,480,SBD
1,Bradley Villaflor,M,2005-12-15,17,Wraps,S17-19,87.2,90,165,175,185,185,105,110,115,,115,185,195,205,205,505,SBD
1,Nicholas Keatinge,M,2005-03-08,17,Wraps,S17-19,96.6,100,175,192.5,-210,192.5,102.5,112.5,122.5,,122.5,182.5,200,-210,200,515,SBD
1,Andrew Lim,M,1990-02-28,33,Single-ply,Open,78.5,82.5,150,157.5,165,165,95,102.5,-107.5,,102.5,185,195,,195,462.5,SBD
1,Damon McDonald,M,1978-07-10,44,Raw,M40-49,98.6,100,,,,,162.5,170,-175,,170,235,255,270,270,440,BD
1,Jack Joyce,M,1997-06-05,25,Raw,Open,74.7,75,,,,,110,117.5,120,,120,-190,205,210,210,330,BD
1,Patrick Deligiannis,M,1988-10-24,34,Raw,Open,88.2,90,,,,,125,-140,-140,,125,220,-240,-240,220,345,BD
1,Anthony Day,M,1972-02-04,51,Raw,M50-59,99.1,100,,,,,92.5,-97.5,-97.5,,92.5,,,,,92.5,B
1,Phil Ross,M,1971-05-19,51,Raw,M50-59,150.9,140+,,,,,195,202.5,208,,208,,,,,208,B
1,Nuru Jammeh,M,1990-11-07,32,Raw,Open,72.5,75,,,,,120,125,130,-135.5,130,,,,,130,B
1,Bradley Convy,M,1997-04-23,25,Raw,Open,104.6,110,,,,,150,157.5,-162.5,,157.5,,,,,157.5,B
1,Alex Ross,M,2005-02-18,18,Raw,S17-19,77.6,82.5,,,,,120,125,130,,130,,,,,130,B
1,Eitan Raveh,M,2006-03-30,16,Raw,T14-16,55.6,56,,,,,65,67.5,70,72.5,70,,,,,70,B
1,Simon Baker,M,1980-09-17,42,Raw,M40-49,101.1,110,,,,,,,,,,265,290,-317.5,290,290,D
1,Riley Mason,M,2005-05-21,17,Raw,S17-19,69,75,,,,,,,,,,170,185,-200,185,185,D
