Sex,Equipment,Division,Age,WeightClassKg,Name,BodyweightKg,Best3SquatKg,Best3BenchKg,Best3DeadliftKg,TotalKg,Event,Place
F,Raw,Amateur Open,,48,Tiffany Savanh,45.09,90.72,54.43,117.93,263.08,SBD,1
F,Raw,Amateur Submasters 33-39,,52,Joanne Jeffrey,51.62,81.65,61.23,120.2,263.08,SBD,1
F,Raw,Amateur Submasters 33-39,,52,Julie Bissett,50.62,86.18,45.36,106.59,238.14,SBD,2
F,Wraps,Amateur Open,,52,Alexandra Epp,51.98,102.06,,129.27,,SBD,DQ
F,Raw,Amateur Juniors 20-23,,60,Amanda Milne,58.6,124.74,68.04,129.27,322.05,SBD,1
F,Raw,Amateur Juniors 20-23,,60,Pauline Timmerman,59.42,86.18,47.63,102.06,235.87,SBD,2
F,Wraps,Amateur Open,,60,Kayla Evans,59.96,90.72,49.9,108.86,249.48,SBD,1
F,Wraps,Amateur Teen 16-17,,60,Lianne Presley,57.33,86.18,45.36,90.72,222.26,SBD,1
F,Multi-ply,Pro Open,,67.5,Chanel Nolet,64.32,195.04,120.2,183.7,498.95,SBD,1
F,Raw,Amateur Juniors 20-23,,67.5,Kayla Desroches,61.42,92.99,54.43,108.86,256.28,SBD,1
F,Raw,Amateur Juniors 20-23,,67.5,Jessica Scott,63.78,86.18,27.22,117.93,231.33,SBD,2
F,Raw,Amateur Masters 40-44,,67.5,Shantel Johnson,65.14,90.72,52.16,124.74,267.62,SBD,1
F,Raw,Amateur Masters 40-44,,67.5,Vanessa Parsons,65.91,77.11,47.63,113.4,238.14,SBD,2
F,Wraps,Amateur Open,,67.5,Genevieve Cholette,62.6,81.65,47.63,113.4,242.67,SBD,1
F,Wraps,Pro Open,,67.5,Deanna Cornacchia,63.96,149.69,83.91,154.22,387.82,SBD,1
F,Wraps,Pro Open,,67.5,Shannon Larsen,65.95,136.08,61.23,151.95,349.27,SBD,2
F,Wraps,Pro Open,,67.5,Christina Bruce,66.41,131.54,54.43,138.35,324.32,SBD,3
F,Raw,Amateur Juniors 20-23,,75,Elizabeth Venning,74.98,99.79,54.43,138.35,292.57,SBD,1
F,Raw,Amateur Open,,75,Ashley-Anne Westlake,74.98,145.15,65.77,163.29,374.21,SBD,1
F,Raw,Amateur Submasters 33-39,,75,Candyce Hamel,73.39,81.65,58.97,127.01,267.62,SBD,1
F,Wraps,Amateur Submasters 33-39,,75,Nathalie Dupont,72.3,120.2,79.38,156.49,356.07,SBD,1
F,Raw,Amateur Juniors 20-23,,82.5,Kaylee Vaillancourt,79.02,122.47,54.43,142.88,319.78,SBD,1
F,Raw,Amateur Masters 40-44,,82.5,Boisclair Sophie,75.39,111.13,86.18,142.88,340.19,SBD,1
F,Raw,Amateur Masters 40-44,,82.5,Mary Jo Babcock,78.29,92.99,63.5,136.08,292.57,SBD,2
F,Raw,Amateur Open,,82.5,Brianne Rochon,77.29,72.57,54.43,,,SBD,DQ
F,Raw,Amateur Submasters 33-39,,82.5,Michelle Briere,75.75,122.47,58.97,147.42,328.85,SBD,1
F,Wraps,Pro Juniors 20-23,,82.5,Benedicte Beaulieu,78.11,167.83,88.45,183.7,439.98,SBD,1
F,Raw,Amateur Juniors 20-23,,90,Elizabeth MacKinnon,89.27,117.93,58.97,151.95,328.85,SBD,1
F,Raw,Amateur Submasters 33-39,,100,Chrystelle Moreau,94.62,129.27,77.11,140.61,347,SBD,1
F,Wraps,Amateur Submasters 33-39,,100,Anne-Marie Boivin,96.52,70.31,52.16,108.86,231.33,SBD,1
F,Wraps,Pro Open,,100,Yael Benyair,96.71,158.76,86.18,158.76,403.7,SBD,1
F,Raw,Amateur Submasters 33-39,,110+,Samantha Maxwell,116.85,92.99,58.97,124.74,276.69,SBD,1
F,Wraps,Amateur Juniors 20-23,,110+,Emilie LeBlanc,118.39,111.13,63.5,151.95,326.59,SBD,1
M,Raw,Amateur Youth,12,60,Max Berger,59.6,74.84,45.36,83.91,204.12,SBD,1
M,Raw,Amateur Open,,67.5,Muncuran Purewal,66.04,131.54,104.33,158.76,394.63,SBD,1
M,Raw,Amateur Open,,67.5,James Leader,65.77,90.72,90.72,138.35,319.78,SBD,2
M,Wraps,Amateur Juniors 20-23,,67.5,Tien Le,65.05,124.74,99.79,161.03,385.55,SBD,1
M,Raw,Amateur Teen 18-19,,82.5,Ethan Lajeunesse,80.92,181.44,124.74,204.12,510.29,SBD,1
M,Wraps,Amateur Teen 16-17,,82.5,Ethan Brooks,78.47,197.31,122.47,224.53,544.31,SBD,1
M,Wraps,Amateur Teen 18-19,,90,Pierce Belanger,88.54,247.21,151.95,249.48,648.64,SBD,1
F,Raw,Amateur Open,,100,Nicole Percival,95.25,,61.23,,61.23,B,1
M,Raw,Amateur Juniors 20-23,,75,Dylan Ross,74.39,192.78,108.86,238.14,539.77,SBD,1
M,Raw,Amateur Masters 50-54,,75,Tadesse Tessema,73.84,131.54,74.84,158.76,365.14,SBD,1
M,Wraps,Amateur Masters 40-44,,75,Elliot Wuorinen,74.57,184.84,104.33,190.51,479.67,SBD,1
M,Wraps,Amateur Open,,75,Killian Hamilton,73.62,188.24,122.47,224.53,535.24,SBD,1
M,Wraps,Amateur Open,,75,Matt MacLellan,73.84,170.1,124.74,204.12,498.95,SBD,2
M,Wraps,Amateur Open,,75,Ian Dawe,73.8,176.9,120.2,167.83,464.93,SBD,3
M,Wraps,Amateur Open,,75,Justin Burns,70.76,161.03,99.79,201.85,462.66,SBD,4
M,Wraps,Amateur Submasters 33-39,,75,Matt MacLellan,73.84,170.1,124.74,204.12,498.95,SBD,1
M,Multi-ply,Pro Open,,82.5,Brett Burton,80.56,242.67,142.88,208.65,594.21,SBD,1
M,Raw,Amateur Juniors 20-23,,82.5,Hojin Mok,79.2,181.44,129.27,206.38,517.1,SBD,1
M,Raw,Amateur Juniors 20-23,,82.5,Zachary Carcasole,81.92,142.88,129.27,188.24,460.4,SBD,2
M,Raw,Amateur Juniors 20-23,,82.5,Matt Best,80.38,149.69,108.86,181.44,439.98,SBD,3
M,Raw,Amateur Open,,82.5,Chris Durant,80.1,176.9,108.86,201.85,487.61,SBD,1
M,Raw,Amateur Open,,82.5,Dimitri Doulas,81.65,179.17,,244.94,,SBD,DQ
M,Raw,Amateur Submasters 33-39,,82.5,Jason Rossi,80.29,181.44,111.13,215.46,508.02,SBD,1
M,Wraps,Amateur Juniors 20-23,,82.5,Jake Sparling,80.74,92.99,113.4,190.51,396.89,SBD,1
M,Wraps,Amateur Open,,82.5,Stathis Theofilopoulos,80.83,217.72,149.69,242.67,610.08,SBD,1
M,Wraps,Amateur Open,,82.5,Cody Hand,80.1,181.44,113.4,272.16,566.99,SBD,2
M,Wraps,Amateur Open,,82.5,Philippe Dauphin,79.92,142.88,115.67,219.99,478.54,SBD,3
M,Wraps,Amateur Open,,82.5,Steve Parkhill,81.56,170.1,102.06,206.38,478.54,SBD,4
M,Wraps,Amateur Open,,82.5,Brent Eritou,79.29,147.42,99.79,172.37,419.57,SBD,5
M,Wraps,Pro Open,,82.5,Michael Gentles,80.47,249.48,147.42,249.48,646.37,SBD,1
M,Wraps,Pro Open,,82.5,Mathew Cottin,77.75,165.56,90.72,183.7,439.98,SBD,2
M,Multi-ply,Amateur Open,,90,Martin Lebrun,89.27,256.28,158.76,260.82,675.85,SBD,1
M,Raw,Amateur Juniors 20-23,,90,William Dell,87.72,156.49,131.54,206.38,494.42,SBD,1
M,Raw,Amateur Open,,90,Jeff McCulloch,86.45,181.44,127.01,235.87,544.31,SBD,1
M,Raw,Amateur Open,,90,Vincent Héroux,87.63,151.95,115.67,265.35,532.97,SBD,2
M,Raw,Amateur Open,,90,Francis Lefebvre,84.55,170.1,115.67,192.78,478.54,SBD,3
M,Raw,Amateur Open,,90,Dylan Cooper,88.45,124.74,83.91,179.17,387.82,SBD,4
M,Raw,Amateur Submasters 33-39,,90,Greg Veenstra,87.68,165.56,95.25,199.58,460.4,SBD,1
M,Wraps,Amateur Juniors 20-23,,90,Paul Hewitt,89.63,217.72,156.49,226.8,601.01,SBD,1
M,Wraps,Amateur Juniors 20-23,,90,Phillip McDonald,89.9,215.46,117.93,263.08,596.47,SBD,2
M,Wraps,Amateur Juniors 20-23,,90,Macolm Morgan,88,176.9,120.2,181.44,478.54,SBD,3
M,Wraps,Amateur Masters 40-44,,90,Yannick Ethier,88.72,179.17,115.67,233.6,528.44,SBD,1
M,Wraps,Amateur Masters 45-49,,90,Mark Portelli,89.36,226.8,149.69,206.38,582.87,SBD,1
M,Wraps,Amateur Open,,90,Daniel F Blais,84.55,197.31,127.01,229.06,553.38,SBD,1
M,Wraps,Amateur Open,,90,Zachary Stokes,89.99,174.63,108.86,192.78,476.27,SBD,2
M,Wraps,Amateur Teen 18-19,,90,Benji Therrien,84.82,199.58,151.95,249.48,601.01,SBD,2
M,Wraps,Pro Open,,90,Mansur,89.36,226.8,156.49,267.62,650.91,SBD,2
M,Wraps,Pro Open,,90,Matthew Buck #2,88.63,163.29,102.06,226.8,492.15,SBD,3
M,Raw,Amateur Open,,110,Craig O'Connell,105.78,226.8,154.22,292.57,673.58,SBD,1
M,Raw,Amateur Open,,75,Killian Hamilton,73.62,,122.47,,122.47,B,1
M,Raw,Pro Open,,90,Steve Perkins,88,,156.49,,156.49,B,1
M,Single-ply,Amateur Open,,90,Andrei Oudovikine,89.99,,235.87,,235.87,B,1
M,Single-ply,Amateur Masters 40-44,,90,Andrei Oudovikine,89.99,,235.87,,235.87,B,1
M,Raw,Amateur Open,,90,Dylan Cooper,88.45,,,179.17,179.17,D,1
M,Raw,Amateur Open,,75,Matthew Daines,74.39,,122.47,161.03,283.5,BD,1
M,Raw,Amateur Open,,82.5,Arkadiy Petlakh,82.1,,127.01,188.24,315.25,BD,1
M,Wraps,Pro Open,,90,Louis Lacroix,88.81,233.6,136.08,281.23,650.91,SBD,1
M,Multi-ply,Pro Open,,100,Matt Brass,99.06,328.85,217.72,267.62,814.2,SBD,1
M,Raw,Amateur Juniors 20-23,,100,Joshua McGillivray,98.16,208.65,138.35,233.6,580.6,SBD,1
M,Raw,Amateur Open,,100,Eric Alain,94.71,213.19,142.88,272.16,628.23,SBD,1
M,Raw,Amateur Open,,100,Marshall Foulkes,98.34,176.9,129.27,240.4,546.58,SBD,2
M,Raw,Amateur Open,,100,Ryan Johnson #9,92.99,158.76,122.47,181.44,462.66,SBD,3
M,Raw,Amateur Open,,100,Casti Constantinescu,98.79,165.56,111.13,176.9,453.59,SBD,4
M,Raw,Amateur Submasters 33-39,,100,Robin McLean,95.71,213.19,151.95,231.33,596.47,SBD,1
M,Raw,Pro Open,,100,Roberto Estaca,96.52,224.53,156.49,272.16,653.17,SBD,1
M,Raw,Pro Submasters 33-39,,100,Andrew Lee,98.43,215.46,149.69,215.46,580.6,SBD,1
M,Wraps,Amateur Open,,100,Adam Guida,98.88,224.53,142.88,278.96,646.37,SBD,1
M,Wraps,Amateur Open,,100,Erik Mills,96.98,226.8,140.61,272.16,639.57,SBD,2
M,Wraps,Amateur Open,,100,Peter Hossack,97.79,226.8,129.27,254.01,610.08,SBD,3
M,Wraps,Pro Juniors 20-23,,100,Jean-Eric Lapensee,97.34,306.17,192.78,319.78,818.73,SBD,1
M,Wraps,Pro Open,,100,Kyle Leech,98.52,331.12,185.97,290.3,807.39,SBD,1
M,Wraps,Pro Open,,100,Cody Webber,94.98,226.8,176.9,222.26,625.96,SBD,2
M,Raw,Amateur Juniors 20-23,,110,Mathieu Robichaud,106.87,222.26,165.56,226.8,614.62,SBD,1
M,Raw,Amateur Open,,110,Shane Jonas,101.33,199.58,131.54,249.48,580.6,SBD,2
M,Raw,Amateur Open,,110,Derrick Chusroskie,109.77,131.54,102.06,138.35,371.95,SBD,3
M,Raw,Amateur Teen 18-19,,110,Brandon Cholette,104.42,215.46,142.88,238.14,596.47,SBD,1
M,Raw,Elite Open,,110,Charles Jobin,108.41,238.14,158.76,288.03,684.92,SBD,1
M,Raw,Pro Masters 40-44,,110,Ryan Silverson,104.33,226.8,174.63,249.48,650.91,SBD,1
M,Raw,Pro Open,,110,John P Krawec,109.5,242.67,165.56,272.16,680.39,SBD,1
M,Raw,Pro Open,,110,Steven Andrews,108.95,181.44,113.4,213.19,508.02,SBD,2
M,Wraps,Amateur Open,,110,Adam MacDonnell,109.04,231.33,158.76,258.55,648.64,SBD,1
M,Wraps,Amateur Open,,110,Marc-Antoine Provost-Dourekas,107.86,247.21,149.69,247.21,644.1,SBD,2
M,Wraps,Amateur Open,,110,Matthew Townson,106.05,217.72,142.88,242.67,603.28,SBD,3
M,Wraps,Amateur Open,,110,Alex Martino,108.23,181.44,124.74,235.87,542.04,SBD,4
M,Wraps,Pro Masters 40-44,,110,Sean Murphy,104.14,238.14,127.01,249.48,614.62,SBD,1
M,Wraps,Pro Open,,110,Paul Oneid,107.77,365.14,195.04,328.85,889.04,SBD,1
M,Wraps,Pro Open,,110,Dan Bruce,108.95,290.3,183.7,276.69,750.7,SBD,2
M,Wraps,Pro Open,,110,Justin Spencer,104.14,272.16,147.42,256.28,675.85,SBD,3
M,Wraps,Pro Submasters 33-39,,110,Kareem Archer,108.23,274.42,151.95,256.28,682.66,SBD,1
M,Wraps,Pro Submasters 33-39,,110,Cory Mallory,107.05,235.87,170.1,263.08,669.05,SBD,2
M,Wraps,Pro Submasters 33-39,,110,Gregory Paterson,108.77,224.53,133.81,224.53,582.87,SBD,3
M,Raw,Amateur Open,,125,Josh Turner #1,112.49,208.65,151.95,249.48,610.08,SBD,1
M,Wraps,Amateur Open,,125,Davide Cannucci,120.2,247.21,167.83,244.94,659.98,SBD,1
M,Wraps,Military Pro Open,,125,Steve Lessard,113.31,272.16,174.63,288.03,734.82,SBD,1
M,Wraps,Pro Submasters 33-39,,125,Steve Lessard,113.31,272.16,174.63,288.03,734.82,SBD,1
M,Wraps,Pro Open,,125,Bradie Johnston,122.2,362.87,240.4,303.91,907.18,SBD,1
M,Wraps,Pro Submasters 33-39,,125,Steve Lessard,113.31,272.16,174.63,288.03,734.82,SBD,1
M,Raw,Amateur Submasters 33-39,,140,Max Boivin,138.71,185.97,127.01,215.46,528.44,SBD,1
M,Wraps,Amateur Open,,140,Andre Labelle,135.35,274.42,174.63,306.17,755.23,SBD,1
M,Raw,Amateur Open,,140+,Craig Houghton,150.59,276.69,181.44,288.03,746.16,SBD,1
M,Raw,Pro Open,,140+,Jamie Seguin,147.96,326.59,213.19,322.05,861.83,SBD,1
M,Raw,Pro Open,,140+,Ryan Wereley,142.88,278.96,217.72,322.05,818.73,SBD,2
M,Raw,Amateur Masters 70-74,,140,George Flikas,125.92,,158.76,,158.76,B,1
M,Raw,Pro Open,,110,Paul Martin,101.88,,181.44,,181.44,B,1
M,Raw,Pro Submasters 33-39,,110,Paul Martin,101.88,,181.44,,181.44,B,1
M,Raw,Pro Open,,100,Jordan Moffitt,99.06,,192.78,,192.78,B,1
M,Raw,Amateur Teen 16-17,,125,Keegan Webber,122.83,,154.22,283.5,437.72,BD,1
M,Single-ply,Pro Masters 40-44,,140+,Mike Martelle,142.61,158.76,,,158.76,S,1
M,Raw,Amateur Masters 45-49,,100,Lee Levac,99.06,,181.44,,181.44,B,1
